amaranth/generated/example.vcd
$comment Generated by Amaranth $end
$date 2025-05-12 17:18:32.638580 $end
$timescale 1 fs $end
$scope module bench $end
$scope module top $end
$var wire 1 ! fc_0sel_0 $end
$var wire 8 " arr_0 $end
$var wire 8 # arr_1 $end
$var wire 8 $ fc_0sub_0 $end
$var wire 8 % fc_0sub_1 $end
$var wire 1 & fc_0sel_1 $end
$var wire 8 ' arr_2 $end
$var wire 8 ( fc_0sub_2 $end
$var wire 8 ) l0 $end
$var wire 1 * fc_0sel_2 $end
$var wire 8 + h0 $end
$var wire 8 , m0 $end
$var wire 1 - fc_1sel_0 $end
$var wire 8 . arr_3 $end
$var wire 8 / arr_4 $end
$var wire 8 0 fc_1sub_0 $end
$var wire 8 1 fc_1sub_1 $end
$var wire 1 2 fc_1sel_1 $end
$var wire 8 3 arr_5 $end
$var wire 8 4 fc_1sub_2 $end
$var wire 8 5 l1 $end
$var wire 1 6 fc_1sel_2 $end
$var wire 8 7 h1 $end
$var wire 8 8 m1 $end
$var wire 1 9 fc_2sel_0 $end
$var wire 8 : arr_6 $end
$var wire 8 ; arr_7 $end
$var wire 8 < fc_2sub_0 $end
$var wire 8 = fc_2sub_1 $end
$var wire 1 > fc_2sel_1 $end
$var wire 8 ? arr_8 $end
$var wire 8 @ fc_2sub_2 $end
$var wire 8 A l2 $end
$var wire 1 B fc_2sel_2 $end
$var wire 8 C h2 $end
$var wire 8 D m2 $end
$var wire 1 E slsel_0 $end
$var wire 8 F slsub_1 $end
$var wire 1 G slsel_1 $end
$var wire 8 H sec_0 $end
$var wire 1 I smsel_0 $end
$var wire 8 J smsub_0 $end
$var wire 8 K smsub_1 $end
$var wire 1 L smsel_1 $end
$var wire 8 M smsub_2 $end
$var wire 1 N smsel_2 $end
$var wire 8 O sec_1 $end
$var wire 1 P shsel_0 $end
$var wire 8 Q shsub_1 $end
$var wire 1 R shsel_1 $end
$var wire 8 S sec_2 $end
$var wire 1 T tmsel_0 $end
$var wire 8 U tmsub_0 $end
$var wire 8 V tmsub_1 $end
$var wire 1 W tmsel_1 $end
$var wire 8 X tmsub_2 $end
$var wire 1 Y tmsel_2 $end
$var wire 8 Z med $end
$upscope $end
$upscope $end
$enddefinitions $end
#0
$dumpvars
0!
b0 "
b0 #
b0 $
b0 %
0&
b0 '
b0 (
b0 )
0*
b0 +
b0 ,
0-
b0 .
b0 /
b0 0
b0 1
02
b0 3
b0 4
b0 5
06
b0 7
b0 8
09
b0 :
b0 ;
b0 <
b0 =
0>
b0 ?
b0 @
b0 A
0B
b0 C
b0 D
0E
b0 F
0G
b0 H
0I
b0 J
b0 K
0L
b0 M
0N
b0 O
0P
b0 Q
0R
b0 S
0T
b0 U
b0 V
0W
b0 X
0Y
b0 Z
$end
#10
b1 #
b1 $
1*
b1 ,
1I
b1 K
b1 +
b0 ,
1L
b1 F
0I
b0 K
1E
0L
b0 F
b1 H
1G
1T
b1 V
b0 H
0G
0T
b0 V
1W
0W
b10 '
b10 (
0*
b10 ,
1I
b10 K
b10 +
b1 ,
1L
b0 K
b1 J
0L
1N
b1 O
b1 U
b0 O
1Y
b0 U
b1 Z
0Y
b0 Z
b11 .
1-
b11 1
b11 0
12
b11 5
b0 1
16
b11 8
02
1P
b0 5
b11 7
b0 8
0I
0P
b11 K
1L
b11 F
1I
b0 J
b1 K
0E
b10 F
b1 M
1G
0N
b11 H
b1 J
b0 K
0L
b0 M
1T
b0 H
b1 O
b11 V
0T
1N
b1 V
1W
b0 V
b1 X
b1 U
b0 O
b0 X
b0 U
b1 Z
0W
b0 Z
b100 /
0-
b100 1
b100 0
12
b100 5
b11 1
b0 5
1P
b100 7
b11 4
b11 8
0P
0I
b11 K
1L
b1 K
b11 J
b1 M
b1 O
b1 U
1Y
b1 Z
b0 Z
b101 3
02
b101 5
b11 5
1P
b101 4
06
b11 Q
b101 8
1R
b100 8
b101 J
b101 7
b11 S
b100 J
b11 X
0Y
b11 Z
b1 Z
b110 :
19
b110 =
b110 A
b0 =
b110 <
1>
b0 A
1B
b110 D
0R
0>
0L
b0 S
b110 C
b0 D
1R
1L
b11 S
b0 M
0G
b110 H
b0 X
1Y
b1 M
1T
b10 H
b0 O
b110 V
b11 X
0Y
b11 Z
b10 U
b1 O
b0 V
1W
b1 V
b0 X
b10 Z
0W
1Y
b11 X
0Y
b11 Z
b10 Z
b111 ;
09
b111 =
b111 A
b110 =
b111 <
1>
b0 A
b111 C
b110 @
0R
b110 D
b0 S
1R
0L
b11 S
b0 X
1W
1Y
b1 X
b110 M
0W
0N
b11 X
b1 Z
b110 O
0Y
b11 Z
0T
b100 O
b110 V
b10 V
b100 U
b10 Z
1W
1Y
b10 X
b100 Z
0W
b11 X
b10 Z
b11 Z
b1000 ?
b1000 A
0>
b110 A
b1000 @
0R
b1000 D
b110 S
0B
b111 D
b1000 C
b110 X
b1000 M
0Y
b111 M
b110 Z
b100 Z
#20
b1 "
b1 %
b1 )
b10 #
b10 $
b10 ,
b10 K
b11 '
b11 (
b11 +
b11 F
b11 H
b11 V
b100 .
b100 1
b100 5
b100 Q
b101 /
b101 0
b101 8
b101 J
b101 O
b101 U
b101 Z
b110 3
b110 4
b110 7
b111 :
b111 =
b111 A
b111 S
b111 X
b1000 ;
b1000 <
b1000 D
b1000 M
b0 ?
b0 @
1>
b0 A
b0 C
b111 @
1B
b0 S
1G
b1000 C
b111 D
1R
b100 S
b111 M
0G
b1000 H
1W
b0 X
1Y
1T
b11 H
b1000 V
0W
b11 X
b11 Z
0T
b11 U
b101 V
1W
b100 X
0Y
b100 Z
b101 U
b11 V
b101 X
b11 X
b101 Z
0W
1Y
b100 X
b100 Z
#30
b10 "
b10 %
b10 )
b11 #
b11 $
b11 ,
b11 K
b100 '
b100 (
b100 +
b100 F
b100 H
b100 V
b101 .
b101 1
b101 5
b101 Q
b101 S
b101 X
0Y
b101 Z
b110 /
b110 0
b110 8
b110 J
b110 O
b110 U
1Y
b110 Z
b101 Z
b111 3
b111 4
b111 7
b1000 :
b1000 =
b1000 @
b1000 D
0B
b1000 M
b0 ;
19
b0 <
b0 D
b0 =
b1000 <
1L
b0 @
b0 M
b1000 D
0>
0L
b11 M
1N
1B
b0 C
b1000 M
1G
b11 O
b1000 C
b0 D
1L
b0 M
0G
1T
0N
b1000 H
b11 U
b1000 O
0Y
b11 M
0T
1N
b100 H
b1000 U
b110 O
b1000 V
1Y
b1000 Z
b110 U
b11 O
b100 V
1W
b101 Z
1T
b11 U
0W
b100 X
0Y
b100 Z
b100 U
b11 V
b101 X
b1 ?
b1 @
b1 D
#40
b11 "
b11 %
b11 )
b100 #
b100 $
b100 ,
b100 K
b100 M
b100 O
0T
b100 V
b101 '
b101 (
b101 +
b101 F
b101 H
1T
b101 V
b100 V
b101 U
b101 Z
b110 .
b110 1
b110 5
b110 Q
b110 S
b110 X
b111 /
b111 0
b111 8
b111 J
b1000 3
b1000 4
b1000 7
b0 :
09
b0 <
b0 C
0B
b0 D
b1 C
1G
b1 H
0T
b1 U
b1 V
b100 U
b1 Z
b100 Z
b1 ;
b1 <
b1 D
b10 ?
b10 @
b10 C
b10 H
b10 V
#50
b100 "
b100 %
b100 )
b101 #
b101 $
b101 ,
b101 K
b101 M
b101 O
b101 U
b101 Z
b110 '
b110 (
b110 +
b110 F
b111 .
b111 1
b111 5
b111 Q
b111 S
b111 X
b1000 /
b1000 0
b1000 8
b1000 J
b0 3
12
b0 4
16
b0 5
b0 7
b111 4
b1000 7
b111 8
0P
b0 Q
1E
b1000 F
b0 S
b111 J
b100 Q
0E
0R
b110 F
b0 X
1R
1W
1Y
b100 S
b10 X
b10 Z
0W
b100 X
b100 Z
b1 :
b1 =
b1 A
b10 ;
b10 <
b10 D
b11 ?
b11 @
b11 C
b11 H
b11 V
#60
b101 "
b101 %
b101 )
b101 Q
b101 S
b101 X
0Y
b101 Z
b110 #
b110 $
b110 ,
b110 K
b110 M
b110 O
b110 U
1Y
b110 Z
b101 Z
b111 '
b111 (
b111 +
b111 F
b1000 .
b1000 1
b1000 4
06
b1000 8
b1000 J
b0 /
b0 0
1-
b1000 0
b0 8
b0 1
b1000 8
1I
02
b0 J
b0 4
16
b0 7
0N
0I
b110 J
b1000 K
b1000 M
b1000 7
b0 8
b1000 J
b110 K
1E
b1000 F
b110 M
b1000 O
1I
b0 J
0E
b111 F
b1000 U
b0 O
b110 J
b0 K
0L
b0 M
1T
b0 U
b110 O
0Y
b10 M
0T
1N
b11 U
b110 V
b11 Z
b110 U
b10 O
b11 V
1W
1Y
b110 Z
1T
b10 U
0W
b11 X
0Y
b11 Z
b11 U
b10 V
b101 X
b1 3
b1 4
b1 8
b1 K
b10 :
b10 =
b10 A
b11 ;
b11 <
b11 D
b11 M
b11 O
0T
b11 V
b100 ?
b100 @
b100 C
b100 H
1T
b100 V
b11 V
b100 U
b100 Z
#70
b110 "
b110 %
b110 )
b110 Q
b110 S
b110 X
b111 #
b111 $
b111 ,
b111 J
b1000 '
b1000 (
b1000 +
b1000 F
b0 .
b0 0
0-
06
b0 7
b0 8
1E
b1 7
b1 F
b0 K
0G
b1 H
0T
b1 U
b1 V
b11 U
b1 Z
b11 Z
b1 /
b1 0
b1 8
b1 K
b10 3
b10 4
b10 7
b10 F
b10 H
b10 V
b11 :
b11 =
b11 A
b100 ;
b100 <
b100 D
b100 M
b100 O
b100 U
b100 Z
b101 ?
b101 @
b101 C
#80
b111 "
b111 %
b111 )
b111 Q
b111 S
b111 X
b1000 #
b1000 $
b1000 ,
b1000 J
b0 '
b0 (
1&
b0 +
b111 (
1*
b0 )
b1000 +
b0 Q
0E
b111 ,
b1000 F
b0 S
b111 J
1E
0R
b10 F
b11 S
1G
b1000 H
1W
b0 X
1Y
0G
1T
b101 H
b1000 V
0W
b10 X
b10 Z
b10 H
b101 U
b100 V
1W
b11 X
0T
b100 X
b10 U
b11 Z
0Y
b10 V
b100 U
b100 Z
b10 X
0W
1Y
b11 X
b11 Z
b1 .
b1 1
b1 5
1P
b1 Q
b10 /
b10 0
b10 8
b10 K
b11 3
b11 4
b11 7
b11 F
b11 H
b11 V
b100 :
b100 =
b100 A
b100 S
b100 X
0Y
b100 Z
b101 ;
b101 <
b101 D
b101 M
b101 O
b101 U
1Y
b101 Z
b100 Z
b110 ?
b110 @
b110 C
#90
b1000 "
b1000 %
b1000 (
0*
b1000 ,
b1000 J
b0 #
1!
b0 $
b0 %
b1000 $
b0 ,
0&
b0 (
0I
b0 J
b1000 ,
0N
1I
1*
b10 J
b0 +
b1000 K
1L
b10 O
b1000 J
b1000 +
b10 K
0E
b0 ,
0L
b1000 F
b10 M
1T
1N
b10 U
b1000 O
0I
b0 J
1E
0Y
b11 F
b101 M
1G
0T
0N
b1000 H
b11 U
b10 O
b1000 V
b10 J
b0 K
b11 Z
0G
1T
b110 H
b10 U
1W
b10 Z
b11 H
b110 U
b10 V
b1000 X
b10 X
b11 U
b110 Z
0W
1Y
b100 X
b11 Z
0Y
b100 Z
b11 Z
b1 '
b1 (
b1 ,
b1 K
b10 .
b10 1
b10 5
b10 Q
b11 /
b11 0
b11 8
b11 J
b11 O
0T
b11 V
b100 3
b100 4
b100 7
b100 F
b100 H
1T
b100 V
b11 V
b100 U
b100 Z
b101 :
b101 =
b101 A
b101 S
b101 X
b110 ;
b110 <
b110 D
b110 M
b111 ?
b111 @
b111 C
#100
b111001 "
b111001 $
b111001 +
b10000011 #
b10000011 %
0!
b111001 %
b10000011 $
1&
b10000011 )
b10000011 +
b111001 (
0P
b1 )
b1 Q
1P
b111001 ,
1I
b10 Q
b111001 K
1L
b11 K
b111001 J
0L
1N
b11 M
b111001 O
0T
b111001 V
b110 M
b11 O
1T
b11 U
b110 O
b100 V
1W
b11 Z
0T
b100 U
b110 V
0W
b100 X
b100 Z
b110 U
b100 V
1W
b101 X
1Y
b100 X
b110 Z
0W
b101 X
b100 Z
b101 Z
b1001110 '
0&
b1001110 )
b1001110 (
0P
b111001 )
b111001 Q
b1001110 ,
b1001110 J
1R
b111001 S
b111001 X
0Y
b111001 Z
b110 Z
b11110111 .
1-
b11110111 1
b11110111 0
12
b11110111 5
b11 1
16
b11110111 8
02
1P
b11 4
b100 5
b11110111 7
b11 8
0I
0P
b100 4
b100 Q
b11110111 K
b11 5
1L
b11110111 F
b100 S
b100 8
1I
b11 J
b111001 Q
b1001110 K
0E
0R
b10000011 F
b101 S
b1001110 M
1G
0N
b11110111 H
b1001110 J
b100 K
b100 X
1R
0L
1Y
b111001 S
b100 M
1T
b111 H
b1001110 O
b11110111 V
b101 X
b110 M
b101 Z
0T
1N
b111 U
b1001110 V
1W
b111001 X
0Y
b111001 Z
b1001110 U
b110 O
b111 V
b1001110 X
b1001110 Z
1T
b110 U
0W
b111 X
b110 V
b111001 X
b111 U
b110 Z
b111 Z
b1101 /
b1101 1
12
b1101 5
b100 5
b1101 4
b1101 8
b1101 K
1L
b1101 M
b1101 O
0T
b1101 V
b111 V
b1101 U
b1101 Z
b1110000 3
02
b1110000 5
b1101 5
1P
b1110000 4
b1101 Q
b1110000 8
0P
0I
b111001 Q
b1110000 K
b1101 S
b111001 S
b1110000 M
b1110000 J
b1001110 K
b1101 X
0N
b111001 X
b1001110 M
b1110000 O
1N
b1110000 U
1Y
b1110000 Z
b1001110 O
b1001110 U
b111001 Z
b11001101 :
19
b11001101 =
b11001101 A
b110 =
b11001101 <
1>
b110 @
b111 A
1B
b11001101 D
0R
0>
0L
b111 S
b111 @
b110 A
b11001101 C
b110 D
1R
1L
b111001 S
b110 M
0G
b11001101 H
b111 D
b111 X
b1001110 M
b111 Z
1T
b10000011 H
b110 O
b11001101 V
b111001 X
b111001 Z
b10000011 U
b1001110 O
b110 V
1W
b1001110 V
b110 X
0W
b111001 X
b110 Z
1W
b1001110 X
b111001 Z
b1001110 Z
b1100101 ;
b1100101 =
b1100101 A
1>
b111 A
b1100101 @
0R
b1100101 D
b111 S
1R
0L
b111001 S
b1100101 M
b1100101 O
b1100101 V
b1100101 X
b1100101 Z
b11000100 ?
b11000100 A
0>
b1100101 A
b11000100 @
0R
b11000100 D
b1100101 S
b11000100 M
0W
0N
b11000100 O
0T
b11000100 V
b1110000 O
1T
b10000011 V
b1110000 U
1W
b1110000 V
b10000011 X
b10000011 U
0Y
b1110000 X
b10000011 Z
1Y
b1110000 Z
#110
b11000110 "
b11000110 %
1!
b10000011 %
b11000110 $
1&
b11000110 )
b11000110 Q
b10000011 (
b11000110 +
b1001110 )
b1001110 Q
b11000110 F
b10000011 ,
1R
b1001110 S
b11000110 H
1I
b10000011 K
0R
b1110000 K
b1100101 S
b11000110 U
b10000011 J
b10000011 O
b10000011 V
b10000011 X
b10000011 Z
b11111001 #
b11111001 %
0!
b11000110 %
b11111001 (
b11111001 $
b11111001 +
b11000110 (
0*
b11111001 ,
b11111001 F
1*
b11111001 J
b11000110 +
1E
b11110111 F
1G
1N
b11111001 H
b11111001 O
b11111001 +
0E
b11000110 ,
b11111001 F
0T
b11001101 H
b11111001 U
b11000100 O
b11111001 V
b11000110 J
1E
b11110111 F
1T
b11000100 U
b11001101 V
b11111001 X
0Y
b11111001 Z
b11001101 U
b11000100 V
b11001101 X
b11000100 X
b11001101 Z
1Y
b11000100 Z
b10001000 '
b10001000 )
b10001000 Q
1R
b10001000 S
b1011100 .
b1011100 0
06
b1011100 7
b1011100 F
b1011100 8
b1110000 7
b1110000 F
b1011100 K
0G
b1110000 H
0T
b1110000 U
0Y
b1110000 V
b11000100 U
b1110000 X
0W
1Y
b10001000 X
b10001000 Z
b111011 /
b111011 1
b111011 5
b1100000 3
b1100000 4
b1100000 7
b1100000 F
b1100000 H
b1100000 V
b10001001 :
b10001001 <
b10001001 C
0B
b10001001 D
b11000100 C
b10001001 M
b10001001 O
b10001001 U
b10000111 ;
b10000111 =
b10000111 A
b1011000 ?
b1011000 @
1>
b1011000 A
b1011000 C
b10000111 @
1B
b10000111 D
b10001001 C
1G
b10001001 H
b10000111 M
0G
b10001001 V
b1100000 H
b10000111 O
b1100000 V
b10000111 U
1W
0Y
b1100000 X
0W
1Y
b10001000 X
b10000111 Z
0Y
b10001000 Z
b10000111 Z
#120
b11111110 "
b11111110 %
1!
b11111001 %
b11111110 (
b11111110 $
b11111110 +
b11111001 (
0*
b11111110 ,
b11111001 +
1*
b11111110 J
b11111110 +
b11111001 ,
b11111001 J
b10101101 #
b10101101 %
b10101101 (
b10101101 ,
b10101101 J
b10010010 '
b10010010 )
b10010010 Q
b10010010 S
b10010010 X
b1111100 .
b1111100 0
16
b1111100 8
b1100000 8
b1111100 K
b1111100 7
b1111100 F
b1100000 K
b1111100 H
b1111100 V
b10000000 /
0-
b10000000 1
b10000000 0
12
b10000000 5
b1111100 1
b1100000 5
b10000000 7
b1111100 4
b10000000 F
b1111100 8
b1111100 K
b10000000 H
b10000000 V
b10101010 3
02
b10101010 5
b1111100 5
1P
b10101010 4
06
b1111100 Q
b10101010 8
0P
b1111100 S
b10101010 7
b10000000 8
b10010010 Q
b10101010 K
1L
b10101010 F
b10010010 S
1W
b10000000 K
b1111100 X
0L
1Y
b10000000 M
1G
b10101010 H
0W
b10000000 X
b10000111 M
b10000000 Z
1T
b10001001 H
b10000000 O
b10101010 V
b10010010 X
0Y
b10010010 Z
b10001001 U
b10000111 O
b10000000 V
1W
b10000111 V
b10000000 X
b10001001 Z
0W
1Y
b10010010 X
0Y
b10010010 Z
b10001001 Z
b1010000 :
09
b1010000 <
b1010000 =
b1010000 C
b10000111 <
0B
b10000111 C
b1010000 H
b1010000 @
0>
b1011000 @
0T
b1010000 A
b10000111 H
b1010000 U
1B
b1010000 C
b1010000 Z
b1010000 H
b10000111 U
b10000111 C
b1011000 D
1L
b1011000 M
b10000111 Z
b10000111 H
b1010000 V
b10000111 V
b10000000 M
b1011000 O
1T
b1011000 U
b10000000 O
b10000000 V
b10000111 U
b1011000 Z
b10000111 Z
b101011 ;
19
b101011 <
b101011 =
b101011 C
b1010000 <
0B
b1010000 D
b101011 A
b1011000 C
b101011 H
0T
b1011000 H
b101011 U
b1011000 V
b10000000 U
b101011 Z
b10000000 Z
b10011101 ?
b10011101 @
b10011101 C
b10011101 H
1T
b10011101 V
b10000000 V
b10011101 U
1W
1Y
b10000000 X
b10011101 Z
0W
b10010010 X
b10000000 Z
b10010010 Z
#130
b10001100 "
0!
b10001100 $
b10001100 %
b10001100 +
b10101101 $
0*
0&
b10101101 +
b10001100 (
0E
b10101101 F
b10010010 (
b10001100 )
1*
b10001100 +
1E
b10101010 F
b10101101 +
b10001100 Q
0E
b10010010 ,
b10101101 F
b10001100 S
1E
b10010010 J
b10101010 F
b10001100 X
b10001100 Z
b11000001 #
b11000001 $
b11000001 +
b1000011 '
b1000011 (
1&
b10001100 (
b1000011 ,
b1000011 )
0I
1P
b1000011 J
b1000011 Q
b10001100 ,
b1000011 S
0N
1I
b10000000 J
b1111100 Q
b10001100 K
b1111100 S
b10001100 M
b10001100 J
1W
b10000000 K
b1000011 X
b10000000 X
b10000000 M
b1000011 Z
b10001100 O
1N
b10000000 Z
b10001100 V
b10001100 X
b10000000 O
b10000000 V
b10001100 Z
b10000000 X
b10000000 Z
b10100011 .
1-
b10100011 1
b10100011 0
b10100011 5
b10000000 1
b10100011 Q
b10100011 8
b10000000 5
0I
b10000000 Q
b10100011 K
b10100011 S
b10000000 S
b10100011 M
b10100011 J
0W
b10001100 K
0N
b10001100 M
b10100011 O
0T
1N
b10100011 V
b10001100 O
b10011101 V
b10100011 U
1W
1T
b10011101 X
b10001100 U
0Y
b10001100 V
b10011101 U
b10011101 Z
b10001100 X
1Y
b10001100 Z
b10010 /
b10010 1
b10010 5
b10010 Q
0P
b1000011 Q
b10010 S
0R
b101011 S
1R
b1000011 S
b10100000 3
b10100000 4
16
b10100000 7
b10100000 F
b10100000 8
b10100011 7
b10100011 F
b10100000 J
b1101011 :
b1101011 <
b1101011 D
b10111111 ;
09
b10111111 =
b10111111 A
b1101011 =
b10111111 <
1>
b1101011 @
b10011101 A
1B
b10111111 D
0R
0>
0L
b10011101 S
b10011101 @
b1101011 A
b10111111 C
b1101011 D
1L
b1101011 S
b1101011 M
0G
b10111111 H
0W
b10011101 D
0L
b10001100 M
b10100011 H
b10111111 U
b1101011 O
1W
b1101011 X
b10011101 M
b1101011 Z
b10100011 U
b10001100 O
b1101011 V
b10001100 X
b10001100 Z
b10011101 O
b10001100 V
0W
b1101011 X
b10011101 V
b1101011 Z
1W
b10011101 X
b10011101 Z
b101101 ?
b101101 @
1>
b101101 D
b101101 A
b1101011 @
1L
b101101 S
b101101 M
b1101011 D
1R
b1000011 S
b10001100 M
b101101 O
b101101 V
b10001100 O
b10001100 V
b101101 X
0W
b1000011 X
b101101 Z
1W
b10001100 X
b1000011 Z
b10001100 Z
#140
b1100000 "
b1100000 %
b1100000 (
b1100000 ,
b1100000 K
0L
b1100000 M
b1101011 M
b1100000 O
b1100000 V
b1101011 O
b1101011 V
b1100000 X
b1101011 X
b1100000 Z
b1101011 Z
b1100111 #
b1100111 $
b1100111 +
0E
b1100111 F
b1100111 H
0T
b1100111 U
0Y
b1100111 V
b1101011 U
b1100111 X
1Y
b1100111 Z
b1000 '
b1000 )
b1000 Q
1P
b10010 Q
b1000 S
0R
b101101 S
b10100111 .
b10100111 0
b10100111 7
b10000100 /
b10000100 1
b10000100 5
b10000100 Q
1R
b10000100 S
0W
b10000100 X
0Y
b10000100 Z
b1101011 Z
b1011000 3
12
b1011000 4
b1011000 8
b1011000 5
b10000100 4
1I
b1011000 Q
b10000100 8
b1011000 J
b1011000 S
0N
0I
b1100000 J
b10000100 K
1L
b1100000 O
b10000100 J
1W
b1100000 K
b1011000 X
0L
1Y
b1100000 M
1T
1N
b1100000 U
b10000100 O
b1100111 X
0Y
b1101011 M
b1100111 Z
0T
b1100111 U
b1100000 O
b10000100 V
1T
b1100000 U
b1101011 O
b1100111 V
b10000100 X
b1100000 Z
0T
b1100111 U
b1101011 V
b1100111 X
b1100111 V
b1101011 X
b1101011 U
b1100111 Z
b1100111 X
b1101011 Z
1Y
b1100111 Z
b11010110 :
19
b11010110 =
b10111111 =
b11010110 @
b11010110 <
b11010110 D
b11010110 C
b10111111 @
0B
b10111111 C
b11010110 M
1B
b10111111 D
0N
b11010110 C
b11010110 O
b10111111 M
b11010110 U
b10000100 O
b10000100 U
b10010 ;
b10010 =
b10010 @
0>
b10010 D
b10010 A
b101101 @
b101101 D
1L
b10010 M
1N
b1100000 M
b1100000 O
1T
b1100000 U
0Y
b1100000 V
b1100111 U
b1100000 X
1Y
b1100000 Z
b11110110 ?
b11110110 @
b11110110 D
0B
b11010110 D
b11110110 C
0L
b11010110 M
0N
b11010110 O
0T
b11010110 V
b10000100 O
b1100111 V
b11010110 X
b10000100 U
0Y
b1100111 X
b11010110 Z
1Y
b10000100 Z
b1100111 Z
#150
b110001 "
b110001 %
b110001 (
b110001 ,
b110001 K
b11101001 #
b11101001 $
b11101001 +
b11101001 F
1E
b10100111 F
b11101001 H
1T
b11101001 V
b10100111 H
b10000100 V
b11101001 X
b10100111 U
0Y
b10000100 X
b11101001 Z
1Y
b10100111 Z
b10000100 Z
b11011100 '
0&
b11011100 )
b11011100 (
0P
b110001 )
b110001 Q
1P
b11011100 ,
1I
b1011000 Q
b11011100 K
b110001 S
1L
b10000100 K
b1011000 S
b11011100 J
0L
1N
b10000100 M
b11011100 O
0T
b11011100 V
b11010110 M
b10000100 O
1T
b10000100 U
b11010110 O
b10100111 V
b11011100 X
0Y
b11011100 Z
0T
b10100111 U
b11010110 V
b10100111 X
b10100111 V
b11010110 X
b11010110 U
b10100111 Z
b10100111 X
b11010110 Z
1Y
b10100111 Z
b11001111 .
b11001111 0
b11001111 7
b11001111 F
b11001111 H
b11001111 V
b11001111 X
b11001111 Z
b1101000 /
b1101000 1
b1101000 4
b1101000 8
b1101000 K
b11101011 3
02
b11101011 5
b11101011 Q
b1101000 5
b11101011 4
06
b1101000 Q
b11101011 8
b11101011 S
b1101000 S
b11101011 7
b11001111 8
0I
0W
b11101011 K
1L
b11101011 F
1I
b11001111 J
1W
b11011100 K
b1101000 X
0E
b11101001 F
b11011100 M
b1101000 Z
0N
b11101011 H
b11011100 J
b11001111 K
b11001111 X
0L
b11001111 M
b11001111 Z
1T
b11101001 H
b11011100 O
b11101011 V
b11010110 M
1N
b11101001 U
b11011100 V
b11101011 X
0Y
b11011100 X
b11101011 Z
b11010110 O
1Y
b11010110 V
b11101001 Z
b11010110 X
b11011100 Z
b11010110 Z
b10011111 :
b10011111 <
b10011111 D
1L
b10011111 M
b11001111 M
b10011111 O
b10011111 V
b11001111 O
b11001111 V
b10011111 X
b11001111 X
b10011111 Z
b11001111 Z
b11100101 ;
09
b11100101 =
b11100101 A
b10011111 =
b11100101 <
b11100101 D
b10011111 A
0R
0L
b10011111 S
b11100101 M
0N
b11100101 O
b11100101 V
b11011100 O
b11011100 V
b11100101 X
b11011100 X
b11100101 Z
b11011100 Z
b1101011 ?
b1101011 @
1>
b1101011 A
b1101011 C
b10011111 @
1B
b10011111 D
b11100101 C
b1101011 S
1G
1L
b11100101 H
b10011111 M
1N
b11001111 M
b11100101 U
b11001111 O
b11001111 V
b11001111 X
b11001111 Z
#160
b1001010 "
b1001010 %
b1001010 )
b1000110 #
1!
b1000110 $
b1000110 %
b1000110 +
b1001010 $
0*
b11011100 +
b1000110 F
b1001010 ,
b1000110 )
0I
b11011100 F
b1001010 J
0G
0N
b1001010 K
b11011100 H
b11001111 J
0L
b1001010 M
b11011100 U
1N
b10011111 M
b10011111 O
b10011111 V
b10011111 X
b10011111 Z
b11100101 '
b11100101 (
b11100101 +
b11100101 F
b11100101 H
b11100101 U
b10100110 .
b10100110 0
b10100110 8
b10100110 J
b11001001 /
0-
b11001001 1
b11001001 0
b11001001 5
b10100110 1
b11001001 Q
b11001001 8
b10100110 5
b10100110 Q
b11001001 J
1R
b10100110 S
0W
b10100110 X
b10100110 Z
b11001001 3
b11001001 4
b11001001 7
1E
b11001001 F
b11001001 H
b11001001 U
b1011011 :
b1011011 =
b1011011 @
0>
b1011011 D
b1011011 A
b1101011 @
b1101011 D
b1011011 M
b1101011 M
b1011011 O
b1011011 V
b1101011 O
b1101011 V
b1110 ;
19
b1110 <
b1110 =
b1110 C
b1011011 <
0B
b1011011 D
b1110 A
b1101011 C
1G
b1101011 H
b1011011 M
0T
b1101011 U
b1011011 O
1T
0Y
b1011011 U
b1011011 V
b1101011 U
b1011011 Z
b1101011 Z
b10001000 ?
b10001000 @
b10001000 C
b10001000 H
b10001000 U
b10001000 Z
#170
b10011000 "
b10011000 $
b10011000 ,
b10011000 K
1L
b10011000 M
b10011000 O
0T
b10011000 V
b10001000 V
b10011000 U
b10011000 Z
b100011 #
b100011 %
b100011 )
b10011111 '
b10011111 (
b10011111 +
0E
b10011111 F
b100110 .
b100110 1
b100110 5
b100110 Q
b100110 S
b100110 X
1W
1Y
b10001000 X
b10001000 Z
b10101100 /
b10101100 0
b10101100 8
b10101100 J
b101011 3
b101011 4
16
b101011 7
b101011 8
1E
b10101100 7
1I
b10101100 F
0E
b101011 J
b10011111 F
b101011 K
b10011000 J
0N
0L
b101011 M
1N
b1011011 M
b1011011 O
1T
b1011011 U
0Y
b1011011 V
b10001000 U
b1011011 X
1Y
b1011011 Z
b10101100 :
b10101100 <
b10101100 D
1B
b10001000 D
b10101100 C
b10101100 M
b10001000 M
0G
0N
b10101100 H
b10101100 O
0T
1N
b10011111 H
b10101100 U
b10011000 O
b10101100 V
1T
b10011000 U
b10001000 O
b10011111 V
b10101100 X
0Y
b10101100 Z
b10011111 U
b10001000 V
b10011111 X
b10001000 X
b10011111 Z
1Y
b10001000 Z
b110101 ;
b110101 =
b110101 A
0R
b110101 S
b10001001 ?
b10001001 @
b10001001 D
b10001001 M
b10001001 O
b10001001 V
b10001001 X
b10001001 Z
