amaranth/generated/examples/mux.vcd
$comment Generated by Amaranth $end
$date 2025-05-22 04:16:57.428488 $end
$timescale 1 fs $end
$scope module bench $end
$scope module top $end
$var wire 1 ! clk $end
$var wire 1 " clk$1 $end
$var wire 1 # rst $end
$var wire 1 $ clr_n $end
$var wire 16 % y $end
$var wire 1 & addr $end
$var wire 16 ' x1 $end
$var wire 16 ( x2 $end
$upscope $end
$upscope $end
$enddefinitions $end
#0
$dumpvars
1!
1"
0#
1$
b0 %
0&
b0 '
b0 (
$end
#10
0"
0!
0$
1#
#20
1"
1!
1$
0#
#30
b1101010111101 '
b1100110111110011 (
1&
0"
0!
#40
1"
1!
b1100110111110011 %
#50
b111100001101111 '
b11101011011010 (
0&
0"
0!
#60
1"
1!
b111100001101111 %
#70
b1101111010101110 '
b1111010110001010 (
1&
0"
0!
#80
1"
1!
b1111010110001010 %
#90
b1100101100000100 '
b11111011101 (
0"
0!
#100
1"
1!
b11111011101 %
#110
b10100010010000 '
b1110110111110010 (
0"
0!
#120
1"
1!
b1110110111110010 %
#130
b111111011111011 '
b11110000111001 (
0"
0!
#140
1"
1!
b11110000111001 %
#150
b111101000011101 '
b1010010110111010 (
0"
0!
#160
1"
1!
b1010010110111010 %
#170
b110101001101111 '
b10100100111110 (
0&
0"
0!
#180
1"
1!
b110101001101111 %
#190
b1000110000111000 '
b10100000000100 (
1&
0"
0!
#200
1"
1!
b10100000000100 %
#210
b110110101000 '
b1011011011101110 (
0&
0"
0!
#220
1"
1!
b110110101000 %
